<?xml version="1.0" standalone="no"?>
<!DOCTYPE svg PUBLIC "-//W3C//DTD SVG 1.1//EN" "http://www.w3.org/Graphics/SVG/1.1/DTD/svg11.dtd" >
<svg xmlns="http://www.w3.org/2000/svg">
<metadata>Generated by IcoMoon</metadata>
<defs>
<font id="icomoon" horiz-adv-x="1024">
<font-face units-per-em="1024" ascent="960" descent="-64" />
<missing-glyph horiz-adv-x="1024" />
<glyph unicode="&#x20;" d="" horiz-adv-x="512" />
<glyph unicode="&#xe600;" d="M81.613 702.157c24.986-13.466 371.149-199.373 384.051-206.285 12.851-6.912 29.542-10.24 46.336-10.24 16.845 0 33.536 3.328 46.387 10.291 12.902 6.912 359.014 192.819 384 206.285 25.037 13.414 48.691 55.552 2.765 55.552h-866.253c-45.926 0-22.323-42.138 2.714-55.603zM952.986 599.757c-28.416-14.848-377.19-197.171-394.598-206.285s-29.542-10.291-46.387-10.291c-16.794 0-28.928 1.178-46.336 10.291s-366.234 191.488-394.598 206.285c-20.019 10.445-19.866-1.792-19.866-11.213 0-9.421 0-375.552 0-375.552 0-21.504 28.621-49.152 50.79-49.152h820.070c22.221 0 50.739 27.648 50.739 49.101 0 0 0 366.131 0 375.552 0 9.472 0.205 21.709-19.814 11.264z" />
<glyph unicode="&#xe601;" d="M132.198 686.029c-13.875 13.722-36.301 13.722-50.125 0-13.824-13.67-13.824-35.891 0-49.613l404.89-400.896c13.875-13.722 36.25-13.722 50.125 0l404.89 400.896c13.824 13.722 13.875 35.891 0 49.613s-36.352 13.722-50.125 0.051l-379.853-365.619-379.802 365.568z" />
<glyph unicode="&#xe602;" d="M747.52 665.549l-471.040 0.051 235.52-409.6z" />
<glyph unicode="&#xe603;" d="M512 801.276l-344.834-737.276h689.668l-344.834 737.276zM512 960v0c22.070 0 44.14-14.882 60.884-44.648l437.072-871.112c33.49-59.532 5-108.24-63.302-108.24h-869.308c-68.304 0-96.79 48.708-63.304 108.24l437.074 871.112c16.744 29.766 38.814 44.648 60.884 44.648zM448 192c0 35.346 28.654 64 64 64s64-28.654 64-64c0-35.346-28.654-64-64-64-35.346 0-64 28.654-64 64zM512 576c35.346 0 64-28.654 64-64l-20-192h-88l-20 192c0 35.346 28.654 64 64 64z" />
<glyph unicode="&#xe604;" d="M0 832l384-384v-384l256 64v320l384 384z" />
<glyph unicode="&#xe605;" d="M192 896v-768h768v768h-768zM896 192h-640v640h640v-640zM128 64v640l-64 64v-768h768l-64 64zM429.254 274.746l192 192 146.746-146.746v384h-384l146.746-146.746-192-192z" />
<glyph unicode="&#xe606;" d="M959.998 832h-895.998c-35.342 0-64-28.624-64-64v-640c0-35.376 28.658-64 64-64h895.998c35.344 0 64.002 28.624 64.002 64v640c0 35.376-28.658 64-64.002 64zM832 704l-320-256-320 256h640zM896 192h-768v448l384-320 384 320v-448z" />
</font></defs></svg>